code,name,gioi_tinh,birthday,tkb_id
Luyến,Nguyễn Thị Luyến,nam,1975-01-01,1
Quang,Đào Văn Quang,nam,1975-01-01,1
Nam,Trần Quang Nam,nam,1975-01-01,1
Nhạn,Nguyễn Thị Hồng Nhạn,nam,1975-01-01,1
Phương,Bùi Thị Mai Phương,nam,1975-01-01,1
Dương,Bùi Bạch Dương,nam,1975-01-01,1
Doãn Huyền,Doãn Huyền,nam,1975-01-01,1
Nga,Nguyễn Thị Nga,nam,1975-01-01,1
Kim Huyền,Kim Thị Minh Huyền,nam,1975-01-01,1
Hạnh,Nguyễn Thị Hồng Hạnh,nam,1975-01-01,1
Giang,Hương Giang,nam,1975-01-01,1
Luyến tin,Trần Thu Luyến,nam,1975-01-01,1
Hoàn,Bùi Thị Hoàn,nam,1975-01-01,1
Thanh,Cảnh Thị Thanh,nam,1975-01-01,1
Hà Lý,Phạm Thị Thanh Hà,nam,1975-01-01,1
Vui,Đỗ Thị Kim Vui,nam,1975-01-01,1
Đoàn,Nguyễn Thị Đoàn,nam,1975-01-01,1
Mai,Quách Thị Mai,nam,1975-01-01,1
Thoa,Bùi Thị Kim Thoa,nam,1975-01-01,1
Huyền,Nguyễn Thị Thanh Huyền,nam,1975-01-01,1
Duyên,Phạm Duyên,nam,1975-01-01,1
Thảo,Nguyễn Thị Thảo,nam,1975-01-01,1
Huệ,Nguyễn Thị Huệ,nam,1975-01-01,1
Lan,Nguyễn Thị Ngọc Lan,nam,1975-01-01,1
Dung,Đỗ Thị Dung,nam,1975-01-01,1
Ngọc,Nguyễn Thị Minh Ngọc,nam,1975-01-01,1
Phong,Nguyễn Thị Phong,nam,1975-01-01,1
Hương,Nguyễn Thị Hương,nam,1975-01-01,1
Nhiên,Quách Thị Nhiên,nam,1975-01-01,1
Hường,Đông Thị Bích Hường,nam,1975-01-01,1
Lý,Nguyễn Thị Lý,nam,1975-01-01,1
Thủy,Nguyển Thị Thủy,nam,1975-01-01,1
Hằng Văn,Trần Thị Thanh Hằng,nam,1975-01-01,1
Hà Sử,Nguyễn Thị Thu Hà,nam,1975-01-01,1
Huyền Sử,Dương Thị Huyền,nam,1975-01-01,1
Hà,Nguyễn Thị Hà,nam,1975-01-01,1
Quyên,Thạc Tố Quyên,nam,1975-01-01,1
Tình,Công Thị Tình,nam,1975-01-01,1
Lượng,Nguyễn Xuân Lượng,nam,1975-01-01,1
Việt,Quách Huy Việt,nam,1975-01-01,1
Ngô Hà,Ngô Thị Hà,nam,1975-01-01,1
Hồng,Nguyễn Thị Thúy Hồng,nam,1975-01-01,1
Lương,Phạm Ngọc Lương,nam,1975-01-01,1
Tiến,Tiến,nam,1975-01-01,1
Hương TD,Nguyễn Thị Thu Hương,nam,1975-01-01,1
Chí,Trần Thị Thu Chí,nam,1975-01-01,1
Trần Dung,Trần Thị Dung,nam,1975-01-01,1
Nhung,Nguyễn Thị Kim Nhung,nam,1975-01-01,1
Hằng Địa,Nguyễn Thị Hằng,nam,1975-01-01,1
Bùi Huyền,Bùi Văn Huyền,nam,1975-01-01,1
V.Thu,Võ Thị Ngọc Thu,nu,1975-01-01,2
H.Sơn,Đào Bá Hải Sơn,nam,1975-01-01,2
Hải,Nguyễn Ích Hải,nam,1975-01-01,2
Nền,Quách Thị Nền,nu,1975-01-01,2
Phú,Mai Vĩnh Phú,nam,1975-01-01,2
H.Anh,Đỗ Thị Hải Anh,nu,1975-01-01,2
Hằng,Nguyễn Thị Thu Hằng,nu,1975-01-01,2
Cầm,La Văn Cầm,nam,1975-01-01,2
Lâm,Phan Lâm,nam,1975-01-01,2
Phương,Trần Thị Phương,nu,1975-01-01,2
B.Hạnh,Võ Thị Bích Hạnh,nu,1975-01-01,2
X.Nam,Phạm Xuân Nam,nam,1975-01-01,2
Triển,Bùi Văn Triển,nam,1975-01-01,2
Cúc,Đàm Thị Cúc,nu,1975-01-01,2
Hoan,Nông Thị Hoan,nu,1975-01-01,2
Trạng,Đặng Văn Trạng,nam,1975-01-01,2
Nghĩa,Cao Thị Nghĩa,nu,1975-01-01,2
Long,Châu Ngọc Long,nam,1975-01-01,2
Phước,Trần Văn Phước,nam,1975-01-01,2
Tâm,Đặng Thị Tâm,nu,1975-01-01,2
Trường,Nguyễn Văn Trường,nam,1975-01-01,2
Quế,Trần Văn Quế,nam,1975-01-01,2
Lánh,Nguyễn Thị Lánh,nu,1975-01-01,2
Thúy,Nghiêm Diệu Thúy,nu,1975-01-01,2
Thắm,Nguyễn Thị Thắm,nu,1975-01-01,2
Anh,Lê Thị Thu Anh,nu,1975-01-01,2
Khương,Quách Văn Khương,nam,1975-01-01,2
Ngọc,Mai Thị Thị Mỹ Ngọc,nu,1975-01-01,2
K.Huệ,Nguyễn Thị Kim Huệ,nu,1975-01-01,2
L.Huệ,Lê Thị Huệ,nu,1975-01-01,2
Hạnh,Nguyễn Thị Hạnh,nu,1975-01-01,2
Luyến,Bùi Thị Luyến,nu,1975-01-01,2
Xoan,Vi Thị Bích Xoan,nu,1975-01-01,2
Dũng,Phan Chính Dũng,nam,1975-01-01,2
Toàn,Bùi Thanh Toàn,nam,1975-01-01,2
Sơn,Nguyễn Minh Sơn,nam,1975-01-01,2
Đ.Thi,Đoàn Văn Thi,nam,1975-01-01,2
Cường,Bùi Cao Cường,nam,1975-01-01,2
Eva,Phạmị Eva,nu,1975-01-01,2
T.Thu,Trần Thị Thanh Thu,nu,1975-01-01,2
L.Phương,Mai Thị Lan Phương,nu,1975-01-01,2
Nga,Lê Thị Hằng Nga,nu,1975-01-01,2
Dương,Phạm Minh Dương,nam,1975-01-01,2
Hiên,Nguyễn Thị Hiên,nu,1975-01-01,2
T.Phương,Nguyễn Tùng Phương,nam,1975-01-01,2
Yến,Đỗ Thị Hải Yến,nu,1975-01-01,2
Hạ,Lê Văn Hạ,nam,1975-01-01,2
Thanh,Lê Thị Thanh,nu,1975-01-01,2
Kiều,Vương Thị Kiều,nu,1975-01-01,2
Nhuận,Vũ Ngọc Nhuận,nam,1975-01-01,2
L.Trang,Lê Thị Lệ Trang,nu,1975-01-01,2
L.Hà,Lê Thị Hà,nu,1975-01-01,2
B.Hà,Trần Thị Bích Hà,nu,1975-01-01,2
Tuấn,Trần Minh Tuấn,nam,1975-01-01,2
Tám,Nguyễn Thị Hồng Tám,nu,1975-01-01,2
V.Thắm,Vũ Thị Thắm,nu,1975-01-01,2
Hoàng,Bùi Thanh Hoàng,nam,1975-01-01,2
Tuyến,Mai Thị Kim Tuyến,nu,1975-01-01,2
Hường,Đậu Thị Bích Hường,nu,1975-01-01,2
Ngân,Lê Thị Diễm Ngân,nu,1975-01-01,2
Lương,Phạm Thị Lương,nu,1975-01-01,2
Hiền,Nguyễn Ngọc Hiền,nam,1975-01-01,2
Vân,Nguyễn Thị Vân,nu,1975-01-01,2
Thắng,Nguyễn Phước Thắng,nam,1975-01-01,2
L.Thi,Lường Thị Thi,nu,1975-01-01,2
Xuân,Đỗ Ngọc Xuân,nam,1975-01-01,2
Sâm,Lê Thị Hải Sâm,nu,1975-01-01,2
Quân,Cao Duy Quân,nam,1975-01-01,2
Hoài,Trần Thị Thu Hoài,nu,1975-01-01,2
Nam,Lê Hoài Nam,nam,1975-01-01,2
